Cause_of_Death
…
  Cause_of_Death

Jorge Alejandro, Mia Alanis, Bryce Borak

Our Data

Our data come from Kaggle. “Cause of Deaths” and “World Population”,
both CSV data sets.

What is Shown in our Data Set

tibble(dth_pplt_ds)

## # A tibble: 796 × 45
##    Country.Territory Code   Year Meningitis Alzheimer.s.Disease.and.Other.Deme…¹
##    <chr>             <chr> <dbl>      <int>                                <int>
##  1 Afghanistan       AFG    1990       2159                                 1116
##  2 Afghanistan       AFG    2000       3105                                 1291
##  3 Afghanistan       AFG    2010       2410                                 1476
##  4 Afghanistan       AFG    2015       1821                                 1652
##  5 Albania           ALB    1990        107                                  360
##  6 Albania           ALB    2000         48                                  438
##  7 Albania           ALB    2010         16                                  616
##  8 Albania           ALB    2015         14                                  776
##  9 Algeria           DZA    1990        838                                 1337
## 10 Algeria           DZA    2000        586                                 2219
## # ℹ 786 more rows
## # ℹ abbreviated name: ¹​Alzheimer.s.Disease.and.Other.Dementias
## # ℹ 40 more variables: Parkinson.s.Disease <int>,
## #   Nutritional.Deficiencies <int>, Malaria <int>, Drowning <int>,
## #   Interpersonal.Violence <int>, Maternal.Disorders <int>, HIV.AIDS <int>,
## #   Drug.Use.Disorders <int>, Tuberculosis <int>,
## #   Cardiovascular.Diseases <int>, Lower.Respiratory.Infections <int>, …
…
disease_country_count

## # A tibble: 31 × 2
##    Disease                                    Countries.Affected
##    <chr>                                                   <int>
##  1 Cardiovascular.Diseases                                   204
##  2 Chronic.Respiratory.Diseases                              204
##  3 Diabetes.Mellitus                                         204
##  4 Digestive.Diseases                                        204
##  5 Lower.Respiratory.Infections                              204
##  6 Neonatal.Disorders                                        204
##  7 Neoplasms                                                 204
##  8 Chronic.Kidney.Disease                                    203
##  9 Cirrhosis.and.Other.Chronic.Liver.Diseases                203
## 10 Alzheimer.s.Disease.and.Other.Dementias                   202
## # ℹ 21 more rows
…
